{
    "$schema": "http://json.schemastore.org/prettierrc",
    "trailingComma": "all",
    "tabWidth": 4,
    "useTabs": false,
    "semi": true,
    "singleQuote": true,
    "htmlWhitespaceSensitivity": "css",
    "printWidth": 120,
    "arrowParens": "avoid",
    "parser": "babel",
    "quoteProps": "as-needed",
    "stylelintIntegration": true,
    "proseWrap": "preserve",
    "jsxSingleQuote": false,
    "jsxBracketSameLine": false,
    "cssEnable": ["css", "less", "scss"],
    "typescriptEnable": ["typescript", "typescriptreact"],
    "jsonEnable": ["json"],
    "eslintIntegration": true,
    "bracketSpacing": true,
    "endOfLine": "lf"
}
